#Opt	Id	Name	Type	IP	Offset	Binary
-	0x01	fsbl1-boot	Binary	none	0x0	Ram/tf-a-stm32mp157c-ya157c-512d-v2.stm32
-	0x03	ssbl-boot	Binary	none	0x0	Ram/u-boot.stm32
P	0x04	fsbl1	Binary	mmc1	boot1	tf-a-stm32mp157c-100ask-512d-v1.stm32
P	0x05	fsbl2	Binary	mmc1	boot2	tf-a-stm32mp157c-100ask-512d-v1.stm32
-	0x06	ssbl	Binary	mmc1	0x00080000	u-boot.stm32
-	0x21	boot	System	mmc1	0x00280000	bootfs.ext4
-	0x22	rootfs	FileSystem	mmc1	0x04280000	rootfs.ext4